…
The values within the lists are unnested into the dataframe. The dataframe is then tidied by gathering the values into a "week" variable and assigning corresponding observation values. Treatment and id variables are created. Week is mutated into a numeric variable. The treatment values are recoded into "control" and "experimental".

``` r
df_files = unnest(df_files) %>% 
  gather(key = week, value = obs_value, week_1:week_8) %>% 
    separate(week, into = c("remove", "week"), sep = "_") %>% 
  rename(treatment_id = file_names) %>%
  mutate(treatment_id = str_replace(treatment_id, ".csv", "")) %>% separate(treatment_id, into = c("treatment", "subj_id"), sep = "_") %>% select(subj_id, treatment, week, obs_value, -starts_with("remove")) %>% 
  mutate(week = as.numeric(week)) %>% 
  mutate(treatment = recode(treatment, "con" = "control", "exp" = "experimental"))

df_files
```

    ## # A tibble: 160 x 4
    ##    subj_id treatment  week obs_value
    ##    <chr>   <chr>     <dbl>     <dbl>
    ##  1 01      control       1      0.2 
    ##  2 02      control       1      1.13
    ##  3 03      control       1      1.77
    ##  4 04      control       1      1.04
    ##  5 05      control       1      0.47
    ##  6 06      control       1      2.37
    ##  7 07      control       1      0.03
    ##  8 08      control       1     -0.08
    ##  9 09      control       1      0.08
    ## 10 10      control       1      2.14
    ## # ... with 150 more rows
…
